{
  "uuid": "57039533-5690-4b4c-a369-9c1382e66f0c",
  "name": "MrGauthier29",
  "wins": 0,
  "losses": 2,
  "requests": true,
  "matches": [
    {
      "winner": "to0mat0",
      "loser": "MrGauthier29",
      "time": 1524587752223,
      "duration": 53623,
      "health": 1.0
    },
    {
      "winner": "to0mat0",
      "loser": "MrGauthier29",
      "time": 1524587813583,
      "duration": 25709,
      "health": 4.5
    }
  ]
}