{
  "uuid": "b75d4a51-eb7c-429f-b1a8-28449cad011a",
  "name": "MalgerLaPatate",
  "wins": 2,
  "losses": 4,
  "requests": true,
  "matches": [
    {
      "winner": "to0mat0",
      "loser": "MalgerLaPatate",
      "time": 1524934045697,
      "duration": 24664,
      "health": 10.0
    },
    {
      "winner": "to0mat0",
      "loser": "MalgerLaPatate",
      "time": 1524934183310,
      "duration": 108019,
      "health": 6.5
    },
    {
      "winner": "to0mat0",
      "loser": "MalgerLaPatate",
      "time": 1524934265723,
      "duration": 39258,
      "health": 7.5
    },
    {
      "winner": "MalgerLaPatate",
      "loser": "to0mat0",
      "time": 1524934339490,
      "duration": 57619,
      "health": 10.0
    },
    {
      "winner": "to0mat0",
      "loser": "MalgerLaPatate",
      "time": 1524934385645,
      "duration": 19004,
      "health": 9.5
    },
    {
      "winner": "MalgerLaPatate",
      "loser": "to0mat0",
      "time": 1524934621940,
      "duration": 51812,
      "health": 2.5
    }
  ]
}