{
  "uuid": "b9964368-cc95-4425-82c3-919184e81afb",
  "name": "Azodox_",
  "wins": 1,
  "losses": 2,
  "requests": true,
  "matches": [
    {
      "winner": "Strixmen_",
      "loser": "Azodox_",
      "time": 1524341407329,
      "duration": 57365,
      "health": 6.0
    },
    {
      "winner": "Strixmen_",
      "loser": "Azodox_",
      "time": 1524341647754,
      "duration": 177615,
      "health": 10.0
    },
    {
      "winner": "Azodox_",
      "loser": "to0mat0",
      "time": 1524586293140,
      "duration": 39662,
      "health": 10.0
    }
  ]
}