{
  "uuid": "dd4657f1-608a-4600-9155-af6e3beb8cce",
  "name": "DarkScientist_",
  "wins": 2,
  "losses": 5,
  "requests": true,
  "matches": [
    {
      "winner": "DarkScientist_",
      "loser": "to0mat0",
      "time": 1524315897103,
      "duration": 109923,
      "health": 2.0
    },
    {
      "winner": "to0mat0",
      "loser": "DarkScientist_",
      "time": 1524315974062,
      "duration": 45114,
      "health": 5.5
    },
    {
      "winner": "DarkScientist_",
      "loser": "to0mat0",
      "time": 1524316046674,
      "duration": 46762,
      "health": 10.0
    },
    {
      "winner": "to0mat0",
      "loser": "DarkScientist_",
      "time": 1524317006684,
      "duration": 61913,
      "health": 5.5
    },
    {
      "winner": "to0mat0",
      "loser": "DarkScientist_",
      "time": 1524317060291,
      "duration": 35355,
      "health": 2.5
    },
    {
      "winner": "to0mat0",
      "loser": "DarkScientist_",
      "time": 1524317115450,
      "duration": 26658,
      "health": 6.5
    },
    {
      "winner": "to0mat0",
      "loser": "DarkScientist_",
      "time": 1524317160007,
      "duration": 26753,
      "health": 7.5
    }
  ]
}